<?xml version="1.0" encoding="UTF-8" standalone="no"?>
<!DOCTYPE svg PUBLIC "-//W3C//DTD SVG 1.1//EN" "http://www.w3.org/Graphics/SVG/1.1/DTD/svg11.dtd">
<svg viewBox="0 0 512 512" height="512.0pt" width="512.0pt" xmlns="http://www.w3.org/2000/svg" version="1.1">
<path d="M 0.00 0.00 L 512.00 0.00 L 512.00 512.00 L 0.00 512.00 L 0.00 0.00 Z" fill="none" />
<path d="M 272.48 4.52 C 282.28 8.41 291.82 12.98 301.19 17.80 C 324.28 29.18 345.11 42.71 366.90 56.12 C 384.52 66.50 402.89 77.53 422.05 84.81 C 430.58 87.78 439.33 89.54 448.25 90.91 C 455.06 91.61 461.37 92.56 466.37 97.71 C 469.10 101.10 471.22 105.05 472.92 109.05 C 473.14 111.35 472.97 113.69 473.02 116.00 C 472.00 130.40 471.12 144.61 469.71 159.01 C 467.48 173.88 466.65 187.29 464.05 202.00 C 461.71 214.05 460.17 225.98 457.12 237.89 C 448.15 277.94 434.95 317.54 416.02 354.02 C 397.72 389.90 373.66 422.71 344.84 450.85 C 341.00 455.08 336.44 458.43 332.36 462.38 C 312.74 479.77 291.35 494.96 268.68 508.11 C 266.33 509.27 263.69 510.87 261.03 511.01 C 257.40 510.96 253.74 511.15 250.13 510.91 C 245.30 509.68 240.58 506.28 236.20 503.88 C 226.68 497.78 217.11 491.81 208.04 485.03 C 175.68 461.72 147.28 433.13 124.20 400.60 C 100.68 368.05 83.40 331.48 70.38 293.59 C 64.57 275.63 59.07 257.32 55.26 238.82 C 52.18 227.59 50.72 216.19 48.46 204.80 C 46.98 196.20 45.57 187.70 44.79 179.00 C 42.31 162.33 40.92 145.82 39.80 129.00 C 39.92 122.28 38.39 115.84 39.10 109.07 C 41.73 102.47 45.92 95.88 52.58 92.79 C 56.73 91.26 61.65 91.29 65.96 90.43 C 73.94 89.11 81.65 87.52 89.35 85.02 C 97.38 81.99 105.02 78.23 112.66 74.33 C 128.54 66.04 144.15 56.86 159.33 47.34 C 179.05 35.04 199.17 23.14 220.09 13.00 C 227.86 9.11 236.06 5.70 244.22 2.73 C 253.62 -0.46 263.45 0.78 272.48 4.52 Z" fill="#8a8a8a" />
<path d="M 243.05 118.00 C 251.51 116.84 259.65 118.24 268.11 118.19 C 272.74 119.04 277.29 118.75 281.77 120.32 C 312.52 127.24 340.08 146.42 356.79 173.20 C 364.94 185.65 370.03 199.57 373.32 214.01 C 376.50 231.60 376.16 249.61 371.85 266.97 C 367.21 284.18 359.51 300.36 347.68 313.80 C 332.64 331.82 312.52 345.42 289.90 351.90 C 280.81 355.06 271.55 356.05 262.00 356.59 C 248.82 356.94 234.66 356.21 222.10 351.90 C 186.63 341.77 156.80 313.85 144.01 279.30 C 141.78 272.28 139.29 265.54 138.39 258.35 C 135.75 242.65 136.15 226.54 139.35 210.95 C 142.59 198.27 147.01 186.06 154.02 174.94 C 165.27 156.44 181.86 141.09 200.98 130.99 C 214.02 124.27 228.52 119.94 243.05 118.00 Z" fill="#ffffff" />
<path d="M 246.99 152.24 C 255.43 151.70 263.67 152.27 272.06 153.19 C 278.76 154.26 285.32 157.39 291.65 159.88 C 295.90 162.25 301.51 164.14 304.62 167.97 C 300.03 173.23 294.96 178.08 290.24 183.23 C 256.75 217.40 222.66 251.02 188.95 284.98 C 188.20 285.79 187.46 286.30 186.44 286.69 C 179.22 275.88 173.82 263.97 171.99 251.03 C 169.85 236.44 170.61 220.97 176.12 207.16 C 182.64 190.35 194.49 175.25 209.71 165.49 C 220.90 159.00 233.96 153.18 246.99 152.24 Z" fill="#8a8a8a" />
<path d="M 326.55 189.43 C 330.84 195.26 333.57 202.86 336.51 209.46 C 341.26 221.26 341.16 233.58 341.01 246.01 C 338.56 269.74 325.45 292.22 306.23 306.32 C 299.86 311.18 291.92 314.52 284.57 317.61 C 272.01 322.76 258.09 323.04 244.74 321.94 C 238.41 320.92 231.71 319.56 225.86 316.84 C 219.63 314.05 213.62 312.02 208.22 307.64 C 208.60 306.55 208.80 305.54 209.65 304.69 C 216.23 296.75 223.82 289.45 231.05 282.06 C 251.91 261.24 272.61 240.31 293.57 219.59 C 303.41 209.73 313.31 199.93 323.69 190.65 C 324.62 189.88 325.27 189.24 326.55 189.43 Z" fill="#8a8a8a" /></svg>
