<?xml version="1.0" encoding="UTF-8" standalone="no"?>
<!DOCTYPE svg PUBLIC "-//W3C//DTD SVG 1.1//EN" "http://www.w3.org/Graphics/SVG/1.1/DTD/svg11.dtd">
<svg viewBox="0 0 512 512" height="512.0pt" width="512.0pt" xmlns="http://www.w3.org/2000/svg" version="1.1">
<path d="M 0.00 0.00 L 512.00 0.00 L 512.00 512.00 L 0.00 512.00 L 0.00 0.00 Z" fill="none" />
<path d="M 280.52 8.31 C 291.23 13.12 301.74 18.38 312.11 23.87 C 340.32 38.94 366.27 57.44 394.58 72.42 C 405.33 78.24 416.07 83.47 427.78 87.10 C 436.18 89.58 445.46 90.63 454.03 92.15 C 458.82 93.05 463.25 94.67 466.47 98.51 C 468.75 101.37 470.52 104.67 472.06 107.98 C 473.27 110.48 472.86 113.30 472.70 115.97 C 471.07 134.65 470.25 153.52 467.69 172.03 C 464.64 198.44 460.27 224.71 453.69 250.48 C 444.05 290.01 429.86 328.46 410.21 364.14 C 395.70 390.37 378.24 414.87 357.86 436.85 C 334.85 461.83 308.07 483.45 279.21 501.30 C 273.86 504.58 268.39 508.35 262.45 510.43 C 257.20 511.58 251.00 511.55 246.14 508.98 C 240.28 506.11 234.60 502.39 229.12 498.85 C 193.76 476.59 162.10 448.65 136.18 415.84 C 107.99 380.72 87.40 340.83 72.55 298.42 C 55.97 251.08 46.72 201.87 42.01 152.01 C 41.00 139.68 40.20 127.34 39.30 115.00 C 39.15 112.30 38.98 109.79 40.25 107.31 C 43.24 100.92 47.80 94.10 55.16 92.51 C 64.58 90.76 74.15 89.76 83.50 87.25 C 91.52 84.98 99.32 81.51 106.74 77.76 C 128.58 66.93 148.89 54.41 169.50 41.51 C 188.71 29.88 208.70 18.40 229.19 9.19 C 236.57 6.08 244.54 2.37 252.51 1.27 C 261.88 0.31 272.08 4.61 280.52 8.31 Z" fill="#42c0fb" />
<path d="M 245.98 117.35 C 263.94 116.95 281.22 117.96 298.03 124.87 C 333.38 137.85 361.36 168.43 371.31 204.73 C 375.81 218.92 376.35 233.56 375.44 248.32 C 374.02 264.03 369.37 279.20 362.23 293.24 C 349.77 316.38 329.50 335.73 305.51 346.57 C 292.49 352.32 278.28 356.40 263.99 356.93 C 259.34 357.32 254.68 357.44 250.01 357.07 C 215.28 355.75 181.75 337.84 160.77 310.21 C 146.40 291.83 138.04 269.14 136.44 245.90 C 136.17 236.72 136.02 227.07 137.65 218.02 C 139.58 206.65 143.00 195.48 148.01 185.08 C 156.09 168.16 168.29 153.56 183.03 142.05 C 201.14 127.89 223.19 119.69 245.98 117.35 Z" fill="#ffffff" />
<path d="M 253.00 152.54 C 261.78 152.57 270.03 152.52 278.50 155.25 C 287.35 158.35 296.83 161.86 304.19 167.81 C 298.69 174.06 292.81 180.03 286.96 185.96 C 253.74 219.63 220.14 252.93 186.79 286.48 C 181.92 279.15 177.80 271.42 175.21 262.97 C 171.11 250.86 170.64 237.64 171.89 225.01 C 175.26 201.58 189.40 179.17 209.30 166.29 C 222.06 158.53 237.84 151.91 253.00 152.54 Z" fill="#42c0fb" />
<path d="M 325.96 189.93 C 327.86 191.25 328.93 193.88 330.00 195.87 C 334.42 205.19 338.94 214.61 340.00 225.00 C 340.89 233.27 341.13 241.75 340.14 250.01 C 336.88 270.30 326.16 289.18 310.46 302.44 C 302.24 309.76 291.50 314.65 281.22 318.36 C 271.63 321.94 261.16 322.30 251.00 322.10 C 235.87 321.58 221.42 315.43 208.56 307.81 C 209.87 305.41 211.16 303.06 213.13 301.12 C 221.88 291.87 230.85 282.84 239.86 273.85 C 261.93 251.59 284.10 229.43 306.46 207.46 C 311.32 202.65 316.25 197.91 321.27 193.27 C 322.73 191.97 324.14 190.71 325.96 189.93 Z" fill="#42c0fb" /></svg>
